===============================================================================================
SPUX components configuration                                                                  
===============================================================================================
Component  | Class      | Options                                                              
---------- + ---------- + ---------------------------------------------------------------------
Model      | Randomwalk | dt=0.1, sandboxing=False                                             
Likelihood | PF         | particles=[4, 24], threshold=-2, accuracy=0.15, margin=0.05, stride=1
Sampler    | EMCEE      | chains=8, a=2.0, attempts=100, reset=10                              
===============================================================================================